<?xml version="1.0" encoding="UTF-8" standalone="no"?>
<!-- Created with Inkscape (http://www.inkscape.org/) -->

<svg
   width="440"
   height="440"
   viewBox="0 0 200 200"
   version="1.1"
   id="svg8"
   inkscape:version="1.3.2 (1:1.3.2+202311252150+091e20ef0f)"
   sodipodi:docname="kren.svg"
   inkscape:export-filename="/home/alexey/guesstimator/images/stations/origin.png"
   inkscape:export-xdpi="96"
   inkscape:export-ydpi="96"
   xmlns:inkscape="http://www.inkscape.org/namespaces/inkscape"
   xmlns:sodipodi="http://sodipodi.sourceforge.net/DTD/sodipodi-0.dtd"
   xmlns:xlink="http://www.w3.org/1999/xlink"
   xmlns="http://www.w3.org/2000/svg"
   xmlns:svg="http://www.w3.org/2000/svg"
   xmlns:rdf="http://www.w3.org/1999/02/22-rdf-syntax-ns#"
   xmlns:cc="http://creativecommons.org/ns#"
   xmlns:dc="http://purl.org/dc/elements/1.1/">
  <defs
     id="defs2">
    <marker
       inkscape:stockid="Arrow1Lstart"
       orient="auto"
       refY="0"
       refX="0"
       id="Arrow1Lstart"
       style="overflow:visible"
       inkscape:isstock="true">
      <path
         id="path1583"
         d="M 0,0 5,-5 -12.5,0 5,5 Z"
         style="fill:#01ff25;fill-opacity:1;fill-rule:evenodd;stroke:#237e18;stroke-width:1pt;stroke-opacity:1"
         transform="matrix(0.8,0,0,0.8,10,0)"
         inkscape:connector-curvature="0" />
    </marker>
  </defs>
  <sodipodi:namedview
     id="base"
     pagecolor="#ffffff"
     bordercolor="#666666"
     borderopacity="1.0"
     inkscape:pageopacity="0.0"
     inkscape:pageshadow="2"
     inkscape:zoom="1.4142137"
     inkscape:cx="146.37109"
     inkscape:cy="157.6848"
     inkscape:document-units="px"
     inkscape:current-layer="layer2"
     showgrid="true"
     inkscape:window-width="1848"
     inkscape:window-height="1016"
     inkscape:window-x="72"
     inkscape:window-y="27"
     inkscape:window-maximized="1"
     units="px"
     inkscape:pagecheckerboard="true"
     inkscape:snap-object-midpoints="false"
     inkscape:showpageshadow="0"
     inkscape:deskcolor="#d1d1d1">
    <inkscape:grid
       type="xygrid"
       id="grid853"
       spacingx="2"
       spacingy="2"
       empspacing="5"
       originx="0"
       originy="0"
       units="px"
       visible="true" />
  </sodipodi:namedview>
  <metadata
     id="metadata5">
    <rdf:RDF>
      <cc:Work
         rdf:about="">
        <dc:format>image/svg+xml</dc:format>
        <dc:type
           rdf:resource="http://purl.org/dc/dcmitype/StillImage" />
        <cc:license
           rdf:resource="http://creativecommons.org/licenses/by-nc/4.0/" />
      </cc:Work>
      <cc:License
         rdf:about="http://creativecommons.org/licenses/by-nc/4.0/">
        <cc:permits
           rdf:resource="http://creativecommons.org/ns#Reproduction" />
        <cc:permits
           rdf:resource="http://creativecommons.org/ns#Distribution" />
        <cc:requires
           rdf:resource="http://creativecommons.org/ns#Notice" />
        <cc:requires
           rdf:resource="http://creativecommons.org/ns#Attribution" />
        <cc:prohibits
           rdf:resource="http://creativecommons.org/ns#CommercialUse" />
        <cc:permits
           rdf:resource="http://creativecommons.org/ns#DerivativeWorks" />
      </cc:License>
    </rdf:RDF>
  </metadata>
  <g
     inkscape:groupmode="layer"
     id="layer3"
     inkscape:label="Legs">
    <g
       id="g5"
       inkscape:label="legs">
      <circle
         style="fill:none;fill-opacity:1;stroke:#000000;stroke-width:0.45454545;stroke-linecap:round;stroke-linejoin:round;stroke-dasharray:none;stroke-opacity:1"
         id="path4"
         cx="100"
         cy="100"
         r="4"
         inkscape:label="aligner" />
      <path
         style="fill:#367799;fill-opacity:1;stroke:#000000;stroke-width:2;stroke-linecap:round;stroke-linejoin:round;stroke-dasharray:none;stroke-opacity:1"
         d="m 87.749373,132.40849 -2.42611,-9.56062 -37.520435,9.97873 -14.855157,21.71675 11.180435,44.04391 -1.245853,-37.2233 11.11908,-18.62305 z"
         id="path5"
         inkscape:label="leg-1"
         sodipodi:nodetypes="cccccccc" />
      <path
         style="fill:#367799;fill-opacity:1;stroke:#000000;stroke-width:2;stroke-linecap:round;stroke-linejoin:round;stroke-dasharray:none;stroke-opacity:1"
         d="m 88,120 1.900932,-9.76759 -49.862334,-7.84508 -19.554877,8.59286 -6.201779,47.1852 12.760489,-35.25939 14.563902,-7.60602 z"
         id="path5-7"
         inkscape:label="leg-2"
         sodipodi:nodetypes="cccccccc" />
      <path
         style="fill:#367799;fill-opacity:1;stroke:#000000;stroke-width:2;stroke-linecap:round;stroke-linejoin:round;stroke-dasharray:none;stroke-opacity:1"
         d="M 84.443437,79.877427 81.7416,70.461448 43.091726,78.907307 28.983129,64.620375 17.083358,36.034846 23.053896,72.633931 40.550263,91.005299 Z"
         id="path5-5"
         inkscape:label="leg-3"
         sodipodi:nodetypes="cccccccc" />
      <path
         style="fill:#367799;fill-opacity:1;stroke:#000000;stroke-width:2;stroke-linecap:round;stroke-linejoin:round;stroke-dasharray:none;stroke-opacity:1"
         d="M 85.927299,61.522618 85.82148,69.289697 53.033333,58.575157 41.528495,31.75088 44.427379,1.1594466 50.856478,27.669118 61.672342,48.784708 Z"
         id="path5-3"
         inkscape:label="leg-4"
         sodipodi:nodetypes="cccccccc" />
    </g>
    <use
       x="0"
       y="0"
       xlink:href="#g5"
       id="use5"
       transform="matrix(-1,0,0,1,200,0)" />
  </g>
  <g
     inkscape:label="Top hull"
     inkscape:groupmode="layer"
     id="layer1"
     transform="translate(-11.112499,-168.41293)"
     style="display:inline">
    <path
       style="fill:#367799;fill-opacity:1;stroke:#000000;stroke-width:3;stroke-linecap:round;stroke-linejoin:round;stroke-dasharray:none;stroke-opacity:1"
       d="m 111.1125,268.41293 v -80 l -40.000001,40 20,40 z"
       id="path2"
       sodipodi:nodetypes="ccccc"
       inkscape:label="back" />
    <use
       x="0"
       y="0"
       xlink:href="#path2"
       id="use2"
       transform="matrix(-1,0,0,1,222.225,0)" />
    <path
       style="fill:#367799;fill-opacity:1;stroke:#000000;stroke-width:3;stroke-linecap:round;stroke-linejoin:round;stroke-dasharray:none;stroke-opacity:1"
       d="M 111.1125,268.41293 H 91.112499 l -10,30 10,26 20.000001,-16 z"
       id="path3"
       sodipodi:nodetypes="cccccc"
       inkscape:label="front" />
    <use
       x="0"
       y="0"
       xlink:href="#path3"
       id="use3"
       transform="matrix(-1,0,0,1,222.225,0)" />
  </g>
  <g
     inkscape:groupmode="layer"
     id="layer2"
     inkscape:label="sketch"
     style="display:none">
    <ellipse
       style="display:inline;fill:none;fill-opacity:1;stroke:#000000;stroke-width:0.454545;stroke-linecap:round;stroke-linejoin:round;stroke-dasharray:none;stroke-opacity:1"
       id="path1"
       cx="100"
       cy="100"
       inkscape:label="outer"
       rx="98"
       ry="120" />
    <ellipse
       style="display:inline;fill:none;fill-opacity:1;stroke:#000000;stroke-width:0.454545;stroke-linecap:round;stroke-linejoin:round;stroke-dasharray:none;stroke-opacity:1"
       id="path1-3"
       cx="100"
       cy="100"
       rx="80"
       ry="100"
       inkscape:label="middle" />
    <ellipse
       style="display:inline;fill:none;fill-opacity:1;stroke:#000000;stroke-width:0.454545;stroke-linecap:round;stroke-linejoin:round;stroke-dasharray:none;stroke-opacity:1"
       id="path1-6"
       cx="100"
       cy="100"
       rx="60"
       ry="66.567177"
       inkscape:label="inner" />
  </g>
</svg>
