<?xml version="1.0" encoding="UTF-8" standalone="no"?>
<!-- Created with Inkscape (http://www.inkscape.org/) -->

<svg
   width="40"
   height="40"
   viewBox="0 0 10.583333 10.583333"
   version="1.1"
   id="svg5"
   inkscape:version="1.2.1 (1:1.2.1+202210291244+9c6d41e410)"
   sodipodi:docname="platinum-chunk.svg"
   xmlns:inkscape="http://www.inkscape.org/namespaces/inkscape"
   xmlns:sodipodi="http://sodipodi.sourceforge.net/DTD/sodipodi-0.dtd"
   xmlns="http://www.w3.org/2000/svg"
   xmlns:svg="http://www.w3.org/2000/svg"
   xmlns:rdf="http://www.w3.org/1999/02/22-rdf-syntax-ns#"
   xmlns:cc="http://creativecommons.org/ns#">
  <sodipodi:namedview
     id="namedview7"
     pagecolor="#505050"
     bordercolor="#ffffff"
     borderopacity="1"
     inkscape:showpageshadow="0"
     inkscape:pageopacity="0"
     inkscape:pagecheckerboard="1"
     inkscape:deskcolor="#505050"
     inkscape:document-units="px"
     showgrid="true"
     inkscape:zoom="12.486195"
     inkscape:cx="7.6484467"
     inkscape:cy="16.217911"
     inkscape:window-width="1848"
     inkscape:window-height="1016"
     inkscape:window-x="72"
     inkscape:window-y="27"
     inkscape:window-maximized="1"
     inkscape:current-layer="layer1">
    <inkscape:grid
       type="xygrid"
       id="grid160"
       spacingx="0.52916665"
       spacingy="0.52916665"
       empspacing="4" />
  </sodipodi:namedview>
  <defs
     id="defs2" />
  <g
     inkscape:label="Layer 1"
     inkscape:groupmode="layer"
     id="layer1">
    <path
       style="fill:#999999;fill-opacity:1;stroke:#666666;stroke-width:0.529167;stroke-linecap:round;stroke-linejoin:round;stroke-dasharray:none;stroke-opacity:1"
       d="m 0.52916665,3.1749999 c 0,-1.5875 2.11666665,-2.64583325 3.17499985,-2.1166666 1.0583333,0.5291666 1.5875,1.5875 1.5875,1.5875 0,0 1.5874999,-2.11666665 2.6458332,-2.11666665 1.0583334,0 1.5875,0.52916665 1.5875,2.11666665 0,1.5874999 -2.6458333,2.6458332 -2.6458333,2.6458332 0,0 2.1166667,-1.0583333 2.6458333,1.0583333 0.5291663,2.1166666 0,2.6458333 -1.5875,3.1749999 -1.5874999,0.5291663 -2.6458332,-1.5875 -2.6458332,-1.5875 0,0 0,2.6458333 -2.6458332,2.1166663 C 0,9.5249997 0.93065154,7.2330835 1.5874999,6.3499998 2.2443484,5.4669161 2.6458333,5.2916665 2.6458333,5.2916665 c 0,0 -2.11666665,-0.5291667 -2.11666665,-2.1166666 z"
       id="path4565"
       sodipodi:nodetypes="zzczzczzczzcz" />
    <path
       style="fill:none;fill-opacity:1;stroke:#666666;stroke-width:0.529167;stroke-linecap:round;stroke-linejoin:round;stroke-dasharray:none;stroke-opacity:1"
       id="path9651"
       sodipodi:type="arc"
       sodipodi:cx="5.8208332"
       sodipodi:cy="7.4083333"
       sodipodi:rx="3.7041667"
       sodipodi:ry="3.7041667"
       sodipodi:start="3.9748608"
       sodipodi:end="4.5201312"
       sodipodi:arc-type="arc"
       d="m 3.3299275,4.6667573 a 3.7041667,3.7041667 0 0 1 1.78313,-0.8943426"
       sodipodi:open="true" />
    <path
       style="fill:none;fill-opacity:1;stroke:#666666;stroke-width:0.529167;stroke-linecap:round;stroke-linejoin:round;stroke-dasharray:none;stroke-opacity:1"
       id="path9651-3"
       sodipodi:type="arc"
       sodipodi:cx="8.4666662"
       sodipodi:cy="7.9374995"
       sodipodi:rx="3.7041667"
       sodipodi:ry="3.7041667"
       sodipodi:start="3.3543463"
       sodipodi:end="4.0231464"
       sodipodi:arc-type="arc"
       d="M 4.8460167,7.1553564 A 3.7041667,3.7041667 0 0 1 6.1109909,5.0788907"
       sodipodi:open="true" />
    <path
       style="fill:#e6e6e6;fill-opacity:1;stroke:none;stroke-width:0.264583px;stroke-linecap:butt;stroke-linejoin:miter;stroke-opacity:1"
       d="M 1.5874999,2.1166666 V 2.6458333 L 2.6458332,2.1166664 V 1.5874996"
       id="path10157"
       sodipodi:nodetypes="cccc" />
    <path
       style="fill:#e6e6e6;fill-opacity:1;stroke:none;stroke-width:0.264583px;stroke-linecap:butt;stroke-linejoin:miter;stroke-opacity:1"
       d="M 2.1166666,6.8791664 3.1749998,6.3499997 V 5.8208331 L 2.1166666,6.3499998"
       id="path10157-3"
       sodipodi:nodetypes="cccc" />
    <path
       style="fill:#e6e6e6;fill-opacity:1;stroke:none;stroke-width:0.264583px;stroke-linecap:butt;stroke-linejoin:miter;stroke-opacity:1"
       d="M 6.3499999,2.6458333 7.4083331,2.1166666 V 1.5875 L 6.3499999,2.1166667"
       id="path10157-3-5"
       sodipodi:nodetypes="cccc" />
    <path
       style="fill:#e6e6e6;fill-opacity:1;stroke:none;stroke-width:0.264583px;stroke-linecap:butt;stroke-linejoin:miter;stroke-opacity:1"
       d="M 5.8208331,6.3499998 V 6.8791664 L 6.8791665,6.3499998 V 5.8208331"
       id="path10157-3-6"
       sodipodi:nodetypes="cccc" />
    <path
       style="fill:#e6e6e6;fill-opacity:1;stroke:none;stroke-width:0.264583px;stroke-linecap:butt;stroke-linejoin:miter;stroke-opacity:1"
       d="M 3.1749999,2.1166666 V 1.5874999 l 0.5291666,0 z"
       id="path10159"
       sodipodi:nodetypes="cccc" />
    <path
       style="fill:#e6e6e6;fill-opacity:1;stroke:none;stroke-width:0.264583px;stroke-linecap:butt;stroke-linejoin:miter;stroke-opacity:1"
       d="M 3.7041665,6.3499997 V 5.8208331 h 0.5291666 z"
       id="path10159-5"
       sodipodi:nodetypes="cccc" />
    <path
       style="fill:#e6e6e6;fill-opacity:1;stroke:none;stroke-width:0.264583px;stroke-linecap:butt;stroke-linejoin:miter;stroke-opacity:1"
       d="M 7.9374998,2.1166665 V 1.5874999 h 0.5291666 z"
       id="path10159-5-3"
       sodipodi:nodetypes="cccc" />
    <path
       style="fill:#e6e6e6;fill-opacity:1;stroke:none;stroke-width:0.264583px;stroke-linecap:butt;stroke-linejoin:miter;stroke-opacity:1"
       d="M 7.4083331,6.3499997 V 5.8208332 h 0.5291668 z"
       id="path10159-5-7"
       sodipodi:nodetypes="cccc" />
  </g>
  <metadata
     id="metadata162">
    <rdf:RDF>
      <cc:License
         rdf:about="http://creativecommons.org/licenses/by-nc/4.0/">
        <cc:permits
           rdf:resource="http://creativecommons.org/ns#Reproduction" />
        <cc:permits
           rdf:resource="http://creativecommons.org/ns#Distribution" />
        <cc:requires
           rdf:resource="http://creativecommons.org/ns#Notice" />
        <cc:requires
           rdf:resource="http://creativecommons.org/ns#Attribution" />
        <cc:prohibits
           rdf:resource="http://creativecommons.org/ns#CommercialUse" />
        <cc:permits
           rdf:resource="http://creativecommons.org/ns#DerivativeWorks" />
      </cc:License>
      <cc:Work
         rdf:about="">
        <cc:license
           rdf:resource="http://creativecommons.org/licenses/by-nc/4.0/" />
      </cc:Work>
    </rdf:RDF>
  </metadata>
</svg>
