<?xml version="1.0" encoding="UTF-8" standalone="no"?>
<!-- Created with Inkscape (http://www.inkscape.org/) -->

<svg
   width="44"
   height="66"
   viewBox="0 0 20 30"
   version="1.1"
   id="svg5"
   inkscape:version="1.3.2 (1:1.3.2+202311252150+091e20ef0f)"
   sodipodi:docname="dart.svg"
   xmlns:inkscape="http://www.inkscape.org/namespaces/inkscape"
   xmlns:sodipodi="http://sodipodi.sourceforge.net/DTD/sodipodi-0.dtd"
   xmlns="http://www.w3.org/2000/svg"
   xmlns:svg="http://www.w3.org/2000/svg"
   xmlns:rdf="http://www.w3.org/1999/02/22-rdf-syntax-ns#"
   xmlns:cc="http://creativecommons.org/ns#">
  <sodipodi:namedview
     id="namedview7"
     pagecolor="#505050"
     bordercolor="#ffffff"
     borderopacity="1"
     inkscape:showpageshadow="0"
     inkscape:pageopacity="0"
     inkscape:pagecheckerboard="1"
     inkscape:deskcolor="#505050"
     inkscape:document-units="px"
     showgrid="true"
     inkscape:zoom="22.627417"
     inkscape:cx="20.572388"
     inkscape:cy="43.354485"
     inkscape:window-width="1848"
     inkscape:window-height="1016"
     inkscape:window-x="72"
     inkscape:window-y="27"
     inkscape:window-maximized="1"
     inkscape:current-layer="layer1">
    <inkscape:grid
       type="xygrid"
       id="grid132"
       spacingx="0.5"
       spacingy="0.5"
       empspacing="10"
       originx="0"
       originy="0"
       units="px"
       visible="true" />
  </sodipodi:namedview>
  <defs
     id="defs2" />
  <g
     inkscape:label="Layer 1"
     inkscape:groupmode="layer"
     id="layer1">
    <path
       style="fill:#2b2b2b;fill-opacity:1;stroke:none;stroke-width:0.454545px;stroke-linecap:butt;stroke-linejoin:miter;stroke-opacity:1"
       d="m 10,0.5 9.5,29 L 10,26 0.5,29.5 Z"
       id="path1"
       sodipodi:nodetypes="ccccc" />
    <path
       style="fill:#1a1a1a;fill-opacity:1;stroke:none;stroke-width:0.454545px;stroke-linecap:butt;stroke-linejoin:miter;stroke-opacity:1"
       d="M 10,0.5 V 26 l -9.5,3.5 z"
       id="path2"
       sodipodi:nodetypes="cccc" />
    <path
       style="fill:#8d8d8d;stroke:none;stroke-width:0.454545;stroke-linecap:butt;stroke-linejoin:miter;stroke-dasharray:none;stroke-opacity:1"
       d="M 12.600688,21.625105 10,21 l 4.041397,-0.928505 2.914528,4.287723 -3.627495,4.975312 1.460473,-4.55266 z"
       id="path10"
       inkscape:label="clamp"
       sodipodi:nodetypes="ccccccc" />
    <path
       style="fill:#9b00ff;fill-opacity:0.698381;stroke:none;stroke-width:0.454545px;stroke-linecap:butt;stroke-linejoin:miter;stroke-opacity:1"
       d="m 8,26.5 4,-2 C 10.18084,22.877654 7.3875178,20.122593 7.8854453,17.147236 L 5.7674031,17.756662 C 6.2285396,20.524442 6.8142959,24.321908 8,26.5 Z"
       id="path11"
       sodipodi:nodetypes="ccccc"
       inkscape:label="stream" />
    <path
       style="fill:#1cbe1c;fill-opacity:1;stroke:none;stroke-width:0.454545px;stroke-linecap:butt;stroke-linejoin:miter;stroke-opacity:1"
       d="m 10,0.5 9.5,29 L 10,16 0.5,29.5 Z"
       id="path3"
       sodipodi:nodetypes="ccccc" />
    <path
       style="fill:#21e521;stroke:none;stroke-width:0.454545px;stroke-linecap:butt;stroke-linejoin:miter;stroke-opacity:1"
       d="m 10,0.5 -10e-8,9.0710095 V 16 L 0.5,29.5 Z"
       id="path4"
       sodipodi:nodetypes="ccccc" />
    <path
       style="fill:none;stroke:#274d27;stroke-width:1;stroke-linecap:round;stroke-linejoin:round;stroke-dasharray:none;stroke-opacity:1"
       d="M 9.9999999,0.50000031 19.5,29.5 9.9999999,16 0.5,29.5 Z"
       id="path5"
       sodipodi:nodetypes="ccccc" />
    <circle
       style="fill:#9b00ff;fill-opacity:0.346724;stroke:none;stroke-width:1;stroke-linecap:round;stroke-linejoin:round;stroke-dasharray:none"
       id="path7"
       cx="10"
       cy="25.5"
       r="4"
       inkscape:label="glow-a" />
    <circle
       style="fill:#b855ff;fill-opacity:1;stroke:none;stroke-width:1;stroke-linecap:round;stroke-linejoin:round;stroke-dasharray:none"
       id="path6"
       cx="10"
       cy="25.5"
       r="3"
       inkscape:label="sphere" />
    <ellipse
       style="fill:#9b00ff;fill-opacity:0.202561;stroke:none;stroke-width:1;stroke-linecap:round;stroke-linejoin:round;stroke-dasharray:none"
       id="path8"
       cx="6"
       cy="25"
       rx="4.0371745e-16"
       ry="1.7763568e-14" />
  </g>
  <metadata
     id="metadata134">
    <rdf:RDF>
      <cc:Work
         rdf:about="">
        <cc:license
           rdf:resource="http://creativecommons.org/licenses/by-nc/4.0/" />
      </cc:Work>
      <cc:License
         rdf:about="http://creativecommons.org/licenses/by-nc/4.0/">
        <cc:permits
           rdf:resource="http://creativecommons.org/ns#Reproduction" />
        <cc:permits
           rdf:resource="http://creativecommons.org/ns#Distribution" />
        <cc:requires
           rdf:resource="http://creativecommons.org/ns#Notice" />
        <cc:requires
           rdf:resource="http://creativecommons.org/ns#Attribution" />
        <cc:prohibits
           rdf:resource="http://creativecommons.org/ns#CommercialUse" />
        <cc:permits
           rdf:resource="http://creativecommons.org/ns#DerivativeWorks" />
      </cc:License>
    </rdf:RDF>
  </metadata>
</svg>
